…
``` r
ypg_by_team_2018_forward
```

    ## # A tibble: 160 x 3
    ##    posteam season   ypg
    ##    <chr>   <fct>  <dbl>
    ##  1 ARI     2018     242
    ##  2 ARI     2019     342
    ##  3 ARI     2020     385
    ##  4 ARI     2021     374
    ##  5 ARI     2022     336
    ##  6 ATL     2018     389
    ##  7 ATL     2019     380
    ##  8 ATL     2020     369
    ##  9 ATL     2021     304
    ## 10 ATL     2022     316
    ## # ... with 150 more rows
…
